<?xml version="1.0" encoding="utf-8"?>
<!-- Generator: Adobe Illustrator 17.1.0, SVG Export Plug-In . SVG Version: 6.00 Build 0)  -->
<!DOCTYPE svg PUBLIC "-//W3C//DTD SVG 1.1//EN" "http://www.w3.org/Graphics/SVG/1.1/DTD/svg11.dtd">
<svg version="1.1" id="Layer_1" xmlns="http://www.w3.org/2000/svg" xmlns:xlink="http://www.w3.org/1999/xlink" x="0px" y="0px"
	 viewBox="0 0 555.5 91.5" enable-background="new 0 0 555.5 91.5" xml:space="preserve">
<g>
	<polygon fill="#929292" points="311.6,45.4 243.4,3.5 243.4,22.3 283.6,45.4 243.4,68.6 243.4,87.4 	"/>
</g>
<g>
	<g>
		<defs>
			<path id="SVGID_1_" d="M201.3,43.9L201.3,43.9c0.8,0,1.5,0.7,1.5,1.5c0,0.8-0.7,1.5-1.5,1.5l0,0c-0.8,0-1.5-0.7-1.5-1.5
				C199.8,44.6,200.4,43.9,201.3,43.9z M189,43.9L189,43.9c0.8,0,1.5,0.7,1.5,1.5c0,0.8-0.7,1.5-1.5,1.5l0,0c-0.8,0-1.5-0.7-1.5-1.5
				C187.5,44.6,188.2,43.9,189,43.9z M176.8,43.9L176.8,43.9c0.8,0,1.5,0.7,1.5,1.5c0,0.8-0.7,1.5-1.5,1.5l0,0
				c-0.8,0-1.5-0.7-1.5-1.5C175.3,44.6,176,43.9,176.8,43.9z M164.6,43.9L164.6,43.9c0.8,0,1.5,0.7,1.5,1.5c0,0.8-0.7,1.5-1.5,1.5
				l0,0c-0.8,0-1.5-0.7-1.5-1.5C163.1,44.6,163.7,43.9,164.6,43.9z M152.3,43.9L152.3,43.9c0.8,0,1.5,0.7,1.5,1.5
				c0,0.8-0.7,1.5-1.5,1.5l0,0c-0.8,0-1.5-0.7-1.5-1.5C150.8,44.6,151.5,43.9,152.3,43.9z M140.1,43.9L140.1,43.9
				c0.8,0,1.5,0.7,1.5,1.5c0,0.8-0.7,1.5-1.5,1.5l0,0c-0.8,0-1.5-0.7-1.5-1.5C138.6,44.6,139.3,43.9,140.1,43.9z M127.9,43.9
				L127.9,43.9c0.8,0,1.5,0.7,1.5,1.5c0,0.8-0.7,1.5-1.5,1.5l0,0c-0.8,0-1.5-0.7-1.5-1.5C126.4,44.6,127,43.9,127.9,43.9z
				 M115.6,43.9L115.6,43.9c0.8,0,1.5,0.7,1.5,1.5c0,0.8-0.7,1.5-1.5,1.5l0,0c-0.8,0-1.5-0.7-1.5-1.5
				C114.1,44.6,114.8,43.9,115.6,43.9z M103.4,43.9L103.4,43.9c0.8,0,1.5,0.7,1.5,1.5c0,0.8-0.7,1.5-1.5,1.5l0,0
				c-0.8,0-1.5-0.7-1.5-1.5C101.9,44.6,102.6,43.9,103.4,43.9z M91.1,43.9L91.1,43.9c0.8,0,1.5,0.7,1.5,1.5c0,0.8-0.7,1.5-1.5,1.5
				l0,0c-0.8,0-1.5-0.7-1.5-1.5C89.6,44.6,90.3,43.9,91.1,43.9z M78.9,43.9L78.9,43.9c0.8,0,1.5,0.7,1.5,1.5c0,0.8-0.7,1.5-1.5,1.5
				l0,0c-0.8,0-1.5-0.7-1.5-1.5C77.4,44.6,78.1,43.9,78.9,43.9z M66.7,43.9L66.7,43.9c0.8,0,1.5,0.7,1.5,1.5c0,0.8-0.7,1.5-1.5,1.5
				l0,0c-0.8,0-1.5-0.7-1.5-1.5C65.2,44.6,65.8,43.9,66.7,43.9z M54.4,43.9L54.4,43.9c0.8,0,1.5,0.7,1.5,1.5c0,0.8-0.7,1.5-1.5,1.5
				l0,0c-0.8,0-1.5-0.7-1.5-1.5C52.9,44.6,53.6,43.9,54.4,43.9z M42.2,43.9L42.2,43.9c0.8,0,1.5,0.7,1.5,1.5c0,0.8-0.7,1.5-1.5,1.5
				l0,0c-0.8,0-1.5-0.7-1.5-1.5C40.7,44.6,41.4,43.9,42.2,43.9z M30,43.9L30,43.9c0.8,0,1.5,0.7,1.5,1.5c0,0.8-0.7,1.5-1.5,1.5l0,0
				c-0.8,0-1.5-0.7-1.5-1.5C28.5,44.6,29.1,43.9,30,43.9z M17.7,43.9L17.7,43.9c0.8,0,1.5,0.7,1.5,1.5c0,0.8-0.7,1.5-1.5,1.5l0,0
				c-0.8,0-1.5-0.7-1.5-1.5C16.2,44.6,16.9,43.9,17.7,43.9z"/>
		</defs>
		<clipPath id="SVGID_2_">
			<use xlink:href="#SVGID_1_"  overflow="visible"/>
		</clipPath>
		<rect x="16.5" y="43.5" clip-path="url(#SVGID_2_)" fill="#050505" width="0" height="3"/>
		<rect x="16.5" y="43.5" clip-path="url(#SVGID_2_)" fill="#060606" width="1" height="3"/>
		<rect x="17.5" y="43.5" clip-path="url(#SVGID_2_)" fill="#060606" width="1" height="3"/>
		<rect x="18.5" y="43.5" clip-path="url(#SVGID_2_)" fill="#070707" width="1" height="3"/>
		<rect x="28.5" y="43.5" clip-path="url(#SVGID_2_)" fill="#0E0E0E" width="1" height="3"/>
		<rect x="29.5" y="43.5" clip-path="url(#SVGID_2_)" fill="#0E0E0E" width="1" height="3"/>
		<rect x="30.5" y="43.5" clip-path="url(#SVGID_2_)" fill="#0F0F0F" width="0" height="3"/>
		<rect x="30.5" y="43.5" clip-path="url(#SVGID_2_)" fill="#0F0F0F" width="1" height="3"/>
		<rect x="40.5" y="43.5" clip-path="url(#SVGID_2_)" fill="#171717" width="0" height="3"/>
		<rect x="40.5" y="43.5" clip-path="url(#SVGID_2_)" fill="#181818" width="1" height="3"/>
		<rect x="41.5" y="43.5" clip-path="url(#SVGID_2_)" fill="#181818" width="1" height="3"/>
		<rect x="42.5" y="43.5" clip-path="url(#SVGID_2_)" fill="#191919" width="1" height="3"/>
		<rect x="43.5" y="43.5" clip-path="url(#SVGID_2_)" fill="#1A1A1A" width="0" height="3"/>
		<rect x="52.5" y="43.5" clip-path="url(#SVGID_2_)" fill="#222222" width="1" height="3"/>
		<rect x="53.5" y="43.5" clip-path="url(#SVGID_2_)" fill="#232323" width="1" height="3"/>
		<rect x="54.5" y="43.5" clip-path="url(#SVGID_2_)" fill="#242424" width="1" height="3"/>
		<rect x="55.5" y="43.5" clip-path="url(#SVGID_2_)" fill="#252525" width="0" height="3"/>
		<rect x="55.5" y="43.5" clip-path="url(#SVGID_2_)" fill="#262626" width="0" height="3"/>
		<rect x="65.5" y="43.5" clip-path="url(#SVGID_2_)" fill="#2F2F2F" width="0" height="3"/>
		<rect x="65.5" y="43.5" clip-path="url(#SVGID_2_)" fill="#303030" width="1" height="3"/>
		<rect x="66.5" y="43.5" clip-path="url(#SVGID_2_)" fill="#313131" width="1" height="3"/>
		<rect x="67.5" y="43.5" clip-path="url(#SVGID_2_)" fill="#323232" width="1" height="3"/>
		<rect x="77.5" y="43.5" clip-path="url(#SVGID_2_)" fill="#3B3B3B" width="0" height="3"/>
		<rect x="77.5" y="43.5" clip-path="url(#SVGID_2_)" fill="#3C3C3C" width="1" height="3"/>
		<rect x="78.5" y="43.5" clip-path="url(#SVGID_2_)" fill="#3D3D3D" width="1" height="3"/>
		<rect x="79.5" y="43.5" clip-path="url(#SVGID_2_)" fill="#3E3E3E" width="0" height="3"/>
		<rect x="79.5" y="43.5" clip-path="url(#SVGID_2_)" fill="#3F3F3F" width="1" height="3"/>
		<rect x="89.5" y="43.5" clip-path="url(#SVGID_2_)" fill="#4A4A4A" width="0" height="3"/>
		<rect x="89.5" y="43.5" clip-path="url(#SVGID_2_)" fill="#4B4B4B" width="1" height="3"/>
		<rect x="90.5" y="43.5" clip-path="url(#SVGID_2_)" fill="#4C4C4C" width="1" height="3"/>
		<rect x="91.5" y="43.5" clip-path="url(#SVGID_2_)" fill="#4D4D4D" width="1" height="3"/>
		<rect x="92.5" y="43.5" clip-path="url(#SVGID_2_)" fill="#4E4E4E" width="0" height="3"/>
		<rect x="101.5" y="43.5" clip-path="url(#SVGID_2_)" fill="#595959" width="1" height="3"/>
		<rect x="102.5" y="43.5" clip-path="url(#SVGID_2_)" fill="#5A5A5A" width="1" height="3"/>
		<rect x="103.5" y="43.5" clip-path="url(#SVGID_2_)" fill="#5B5B5B" width="1" height="3"/>
		<rect x="104.5" y="43.5" clip-path="url(#SVGID_2_)" fill="#5C5C5C" width="0" height="3"/>
		<rect x="114.5" y="43.5" clip-path="url(#SVGID_2_)" fill="#696969" width="0" height="3"/>
		<rect x="114.5" y="43.5" clip-path="url(#SVGID_2_)" fill="#6A6A6A" width="1" height="3"/>
		<rect x="115.5" y="43.5" clip-path="url(#SVGID_2_)" fill="#6B6B6B" width="1" height="3"/>
		<rect x="116.5" y="43.5" clip-path="url(#SVGID_2_)" fill="#6C6C6C" width="1" height="3"/>
		<rect x="126.5" y="43.5" clip-path="url(#SVGID_2_)" fill="#787878" width="0" height="3"/>
		<rect x="126.5" y="43.5" clip-path="url(#SVGID_2_)" fill="#797979" width="1" height="3"/>
		<rect x="127.5" y="43.5" clip-path="url(#SVGID_2_)" fill="#7B7B7B" width="1" height="3"/>
		<rect x="128.5" y="43.5" clip-path="url(#SVGID_2_)" fill="#7C7C7C" width="1" height="3"/>
		<rect x="129.5" y="43.5" clip-path="url(#SVGID_2_)" fill="#7D7D7D" width="0" height="3"/>
		<rect x="138.5" y="43.5" clip-path="url(#SVGID_2_)" fill="#8A8A8A" width="1" height="3"/>
		<rect x="139.5" y="43.5" clip-path="url(#SVGID_2_)" fill="#8B8B8B" width="0" height="3"/>
		<rect x="139.5" y="43.5" clip-path="url(#SVGID_2_)" fill="#8C8C8C" width="1" height="3"/>
		<rect x="140.5" y="43.5" clip-path="url(#SVGID_2_)" fill="#8D8D8D" width="1" height="3"/>
		<rect x="141.5" y="43.5" clip-path="url(#SVGID_2_)" fill="#8E8E8E" width="0" height="3"/>
		<rect x="150.5" y="43.5" clip-path="url(#SVGID_2_)" fill="#9B9B9B" width="1" height="3"/>
		<rect x="151.5" y="43.5" clip-path="url(#SVGID_2_)" fill="#9D9D9D" width="1" height="3"/>
		<rect x="152.5" y="43.5" clip-path="url(#SVGID_2_)" fill="#9E9E9E" width="1" height="3"/>
		<rect x="153.5" y="43.5" clip-path="url(#SVGID_2_)" fill="#9F9F9F" width="0" height="3"/>
		<rect x="163.5" y="43.5" clip-path="url(#SVGID_2_)" fill="#ACACAC" width="0" height="3"/>
		<rect x="163.5" y="43.5" clip-path="url(#SVGID_2_)" fill="#AEAEAE" width="0" height="3"/>
		<rect x="163.5" y="43.5" clip-path="url(#SVGID_2_)" fill="#AFAFAF" width="1" height="3"/>
		<rect x="164.5" y="43.5" clip-path="url(#SVGID_2_)" fill="#B0B0B0" width="1" height="3"/>
		<rect x="165.5" y="43.5" clip-path="url(#SVGID_2_)" fill="#B1B1B1" width="1" height="3"/>
		<rect x="175.5" y="43.5" clip-path="url(#SVGID_2_)" fill="#BFBFBF" width="0" height="3"/>
		<rect x="175.5" y="43.5" clip-path="url(#SVGID_2_)" fill="#C1C1C1" width="1" height="3"/>
		<rect x="176.5" y="43.5" clip-path="url(#SVGID_2_)" fill="#C2C2C2" width="1" height="3"/>
		<rect x="177.5" y="43.5" clip-path="url(#SVGID_2_)" fill="#C3C3C3" width="1" height="3"/>
		<rect x="178.5" y="43.5" clip-path="url(#SVGID_2_)" fill="#C4C4C4" width="0" height="3"/>
		<rect x="187.5" y="43.5" clip-path="url(#SVGID_2_)" fill="#D3D3D3" width="1" height="3"/>
		<rect x="188.5" y="43.5" clip-path="url(#SVGID_2_)" fill="#D4D4D4" width="0" height="3"/>
		<rect x="188.5" y="43.5" clip-path="url(#SVGID_2_)" fill="#D5D5D5" width="1" height="3"/>
		<rect x="189.5" y="43.5" clip-path="url(#SVGID_2_)" fill="#D7D7D7" width="1" height="3"/>
		<rect x="199.5" y="43.5" clip-path="url(#SVGID_2_)" fill="#E7E7E7" width="1" height="3"/>
		<rect x="200.5" y="43.5" clip-path="url(#SVGID_2_)" fill="#E8E8E8" width="1" height="3"/>
		<rect x="201.5" y="43.5" clip-path="url(#SVGID_2_)" fill="#E9E9E9" width="1" height="3"/>
		<rect x="202.5" y="43.5" clip-path="url(#SVGID_2_)" fill="#EBEBEB" width="0" height="3"/>
	</g>
</g>
<g>
	<g>
		<defs>
			<path id="SVGID_3_" d="M213.5,43.9c0.4,0,0.8,0.2,1.1,0.4c0.3,0.3,0.4,0.7,0.4,1.1c0,0.4-0.2,0.8-0.4,1.1
				c-0.3,0.3-0.7,0.4-1.1,0.4c-0.4,0-0.8-0.2-1.1-0.4c-0.3-0.3-0.4-0.7-0.4-1.1c0-0.4,0.2-0.8,0.4-1.1
				C212.7,44.1,213.1,43.9,213.5,43.9z M5.5,43.9c0.4,0,0.8,0.2,1.1,0.4S7,45,7,45.4c0,0.4-0.2,0.8-0.4,1.1s-0.7,0.4-1.1,0.4
				c-0.4,0-0.8-0.2-1.1-0.4S4,45.8,4,45.4c0-0.4,0.2-0.8,0.4-1.1S5.1,43.9,5.5,43.9z"/>
		</defs>
		<clipPath id="SVGID_4_">
			<use xlink:href="#SVGID_3_"  overflow="visible"/>
		</clipPath>
		<rect x="3.5" y="43.5" clip-path="url(#SVGID_4_)" width="1" height="3"/>
		<rect x="4.5" y="43.5" clip-path="url(#SVGID_4_)" width="1" height="3"/>
		<rect x="5.5" y="43.5" clip-path="url(#SVGID_4_)" width="0" height="3"/>
		<rect x="5.5" y="43.5" clip-path="url(#SVGID_4_)" fill="#010101" width="1" height="3"/>
		<rect x="6.5" y="43.5" clip-path="url(#SVGID_4_)" fill="#010101" width="0" height="3"/>
		<rect x="211.5" y="43.5" clip-path="url(#SVGID_4_)" fill="#FAFAFA" width="1" height="3"/>
		<rect x="212.5" y="43.5" clip-path="url(#SVGID_4_)" fill="#FBFBFB" width="1" height="3"/>
		<rect x="213.5" y="43.5" clip-path="url(#SVGID_4_)" fill="#FCFCFC" width="0" height="3"/>
		<rect x="213.5" y="43.5" clip-path="url(#SVGID_4_)" fill="#FEFEFE" width="1" height="3"/>
		<rect x="214.5" y="43.5" clip-path="url(#SVGID_4_)" fill="#FFFFFF" width="0" height="3"/>
	</g>
</g>
<g>
	<g>
		<defs>
			<path id="SVGID_5_" d="M537.3,43.9L537.3,43.9c0.8,0,1.5,0.7,1.5,1.5c0,0.8-0.7,1.5-1.5,1.5l0,0c-0.8,0-1.5-0.7-1.5-1.5
				C535.8,44.6,536.4,43.9,537.3,43.9z M525,43.9L525,43.9c0.8,0,1.5,0.7,1.5,1.5c0,0.8-0.7,1.5-1.5,1.5l0,0c-0.8,0-1.5-0.7-1.5-1.5
				C523.5,44.6,524.2,43.9,525,43.9z M512.8,43.9L512.8,43.9c0.8,0,1.5,0.7,1.5,1.5c0,0.8-0.7,1.5-1.5,1.5l0,0
				c-0.8,0-1.5-0.7-1.5-1.5C511.3,44.6,512,43.9,512.8,43.9z M500.6,43.9L500.6,43.9c0.8,0,1.5,0.7,1.5,1.5c0,0.8-0.7,1.5-1.5,1.5
				l0,0c-0.8,0-1.5-0.7-1.5-1.5C499.1,44.6,499.7,43.9,500.6,43.9z M488.3,43.9L488.3,43.9c0.8,0,1.5,0.7,1.5,1.5
				c0,0.8-0.7,1.5-1.5,1.5l0,0c-0.8,0-1.5-0.7-1.5-1.5C486.8,44.6,487.5,43.9,488.3,43.9z M476.1,43.9L476.1,43.9
				c0.8,0,1.5,0.7,1.5,1.5c0,0.8-0.7,1.5-1.5,1.5l0,0c-0.8,0-1.5-0.7-1.5-1.5C474.6,44.6,475.3,43.9,476.1,43.9z M463.9,43.9
				L463.9,43.9c0.8,0,1.5,0.7,1.5,1.5c0,0.8-0.7,1.5-1.5,1.5l0,0c-0.8,0-1.5-0.7-1.5-1.5C462.4,44.6,463,43.9,463.9,43.9z
				 M451.6,43.9L451.6,43.9c0.8,0,1.5,0.7,1.5,1.5c0,0.8-0.7,1.5-1.5,1.5l0,0c-0.8,0-1.5-0.7-1.5-1.5
				C450.1,44.6,450.8,43.9,451.6,43.9z M439.4,43.9L439.4,43.9c0.8,0,1.5,0.7,1.5,1.5c0,0.8-0.7,1.5-1.5,1.5l0,0
				c-0.8,0-1.5-0.7-1.5-1.5C437.9,44.6,438.6,43.9,439.4,43.9z M427.1,43.9L427.1,43.9c0.8,0,1.5,0.7,1.5,1.5c0,0.8-0.7,1.5-1.5,1.5
				l0,0c-0.8,0-1.5-0.7-1.5-1.5C425.6,44.6,426.3,43.9,427.1,43.9z M414.9,43.9L414.9,43.9c0.8,0,1.5,0.7,1.5,1.5
				c0,0.8-0.7,1.5-1.5,1.5l0,0c-0.8,0-1.5-0.7-1.5-1.5C413.4,44.6,414.1,43.9,414.9,43.9z M402.7,43.9L402.7,43.9
				c0.8,0,1.5,0.7,1.5,1.5c0,0.8-0.7,1.5-1.5,1.5l0,0c-0.8,0-1.5-0.7-1.5-1.5C401.2,44.6,401.8,43.9,402.7,43.9z M390.4,43.9
				L390.4,43.9c0.8,0,1.5,0.7,1.5,1.5c0,0.8-0.7,1.5-1.5,1.5l0,0c-0.8,0-1.5-0.7-1.5-1.5C388.9,44.6,389.6,43.9,390.4,43.9z
				 M378.2,43.9L378.2,43.9c0.8,0,1.5,0.7,1.5,1.5c0,0.8-0.7,1.5-1.5,1.5l0,0c-0.8,0-1.5-0.7-1.5-1.5
				C376.7,44.6,377.4,43.9,378.2,43.9z M366,43.9L366,43.9c0.8,0,1.5,0.7,1.5,1.5c0,0.8-0.7,1.5-1.5,1.5l0,0c-0.8,0-1.5-0.7-1.5-1.5
				C364.5,44.6,365.1,43.9,366,43.9z M353.7,43.9L353.7,43.9c0.8,0,1.5,0.7,1.5,1.5c0,0.8-0.7,1.5-1.5,1.5l0,0
				c-0.8,0-1.5-0.7-1.5-1.5C352.2,44.6,352.9,43.9,353.7,43.9z"/>
		</defs>
		<clipPath id="SVGID_6_">
			<use xlink:href="#SVGID_5_"  overflow="visible"/>
		</clipPath>
		<rect x="352.5" y="43.5" clip-path="url(#SVGID_6_)" fill="#ECECEC" width="0" height="3"/>
		<rect x="352.5" y="43.5" clip-path="url(#SVGID_6_)" fill="#EBEBEB" width="1" height="3"/>
		<rect x="353.5" y="43.5" clip-path="url(#SVGID_6_)" fill="#EAEAEA" width="1" height="3"/>
		<rect x="354.5" y="43.5" clip-path="url(#SVGID_6_)" fill="#E8E8E8" width="1" height="3"/>
		<rect x="364.5" y="43.5" clip-path="url(#SVGID_6_)" fill="#DADADA" width="1" height="3"/>
		<rect x="365.5" y="43.5" clip-path="url(#SVGID_6_)" fill="#D9D9D9" width="1" height="3"/>
		<rect x="366.5" y="43.5" clip-path="url(#SVGID_6_)" fill="#D7D7D7" width="0" height="3"/>
		<rect x="366.5" y="43.5" clip-path="url(#SVGID_6_)" fill="#D6D6D6" width="1" height="3"/>
		<rect x="376.5" y="43.5" clip-path="url(#SVGID_6_)" fill="#C9C9C9" width="0" height="3"/>
		<rect x="376.5" y="43.5" clip-path="url(#SVGID_6_)" fill="#C8C8C8" width="1" height="3"/>
		<rect x="377.5" y="43.5" clip-path="url(#SVGID_6_)" fill="#C6C6C6" width="1" height="3"/>
		<rect x="378.5" y="43.5" clip-path="url(#SVGID_6_)" fill="#C5C5C5" width="1" height="3"/>
		<rect x="379.5" y="43.5" clip-path="url(#SVGID_6_)" fill="#C4C4C4" width="0" height="3"/>
		<rect x="388.5" y="43.5" clip-path="url(#SVGID_6_)" fill="#B7B7B7" width="1" height="3"/>
		<rect x="389.5" y="43.5" clip-path="url(#SVGID_6_)" fill="#B6B6B6" width="1" height="3"/>
		<rect x="390.5" y="43.5" clip-path="url(#SVGID_6_)" fill="#B5B5B5" width="1" height="3"/>
		<rect x="391.5" y="43.5" clip-path="url(#SVGID_6_)" fill="#B3B3B3" width="0" height="3"/>
		<rect x="391.5" y="43.5" clip-path="url(#SVGID_6_)" fill="#B2B2B2" width="0" height="3"/>
		<rect x="401.5" y="43.5" clip-path="url(#SVGID_6_)" fill="#A5A5A5" width="0" height="3"/>
		<rect x="401.5" y="43.5" clip-path="url(#SVGID_6_)" fill="#A4A4A4" width="1" height="3"/>
		<rect x="402.5" y="43.5" clip-path="url(#SVGID_6_)" fill="#A3A3A3" width="1" height="3"/>
		<rect x="403.5" y="43.5" clip-path="url(#SVGID_6_)" fill="#A2A2A2" width="1" height="3"/>
		<rect x="413.5" y="43.5" clip-path="url(#SVGID_6_)" fill="#959595" width="0" height="3"/>
		<rect x="413.5" y="43.5" clip-path="url(#SVGID_6_)" fill="#949494" width="1" height="3"/>
		<rect x="414.5" y="43.5" clip-path="url(#SVGID_6_)" fill="#939393" width="1" height="3"/>
		<rect x="415.5" y="43.5" clip-path="url(#SVGID_6_)" fill="#929292" width="0" height="3"/>
		<rect x="415.5" y="43.5" clip-path="url(#SVGID_6_)" fill="#919191" width="1" height="3"/>
		<rect x="425.5" y="43.5" clip-path="url(#SVGID_6_)" fill="#858585" width="0" height="3"/>
		<rect x="425.5" y="43.5" clip-path="url(#SVGID_6_)" fill="#848484" width="1" height="3"/>
		<rect x="426.5" y="43.5" clip-path="url(#SVGID_6_)" fill="#828282" width="1" height="3"/>
		<rect x="427.5" y="43.5" clip-path="url(#SVGID_6_)" fill="#818181" width="1" height="3"/>
		<rect x="428.5" y="43.5" clip-path="url(#SVGID_6_)" fill="#808080" width="0" height="3"/>
		<rect x="437.5" y="43.5" clip-path="url(#SVGID_6_)" fill="#747474" width="1" height="3"/>
		<rect x="438.5" y="43.5" clip-path="url(#SVGID_6_)" fill="#737373" width="1" height="3"/>
		<rect x="439.5" y="43.5" clip-path="url(#SVGID_6_)" fill="#727272" width="1" height="3"/>
		<rect x="440.5" y="43.5" clip-path="url(#SVGID_6_)" fill="#717171" width="0" height="3"/>
		<rect x="450.5" y="43.5" clip-path="url(#SVGID_6_)" fill="#646464" width="0" height="3"/>
		<rect x="450.5" y="43.5" clip-path="url(#SVGID_6_)" fill="#636363" width="1" height="3"/>
		<rect x="451.5" y="43.5" clip-path="url(#SVGID_6_)" fill="#626262" width="1" height="3"/>
		<rect x="452.5" y="43.5" clip-path="url(#SVGID_6_)" fill="#616161" width="1" height="3"/>
		<rect x="462.5" y="43.5" clip-path="url(#SVGID_6_)" fill="#565656" width="0" height="3"/>
		<rect x="462.5" y="43.5" clip-path="url(#SVGID_6_)" fill="#555555" width="1" height="3"/>
		<rect x="463.5" y="43.5" clip-path="url(#SVGID_6_)" fill="#545454" width="1" height="3"/>
		<rect x="464.5" y="43.5" clip-path="url(#SVGID_6_)" fill="#535353" width="1" height="3"/>
		<rect x="465.5" y="43.5" clip-path="url(#SVGID_6_)" fill="#525252" width="0" height="3"/>
		<rect x="474.5" y="43.5" clip-path="url(#SVGID_6_)" fill="#474747" width="1" height="3"/>
		<rect x="475.5" y="43.5" clip-path="url(#SVGID_6_)" fill="#464646" width="0" height="3"/>
		<rect x="475.5" y="43.5" clip-path="url(#SVGID_6_)" fill="#454545" width="1" height="3"/>
		<rect x="476.5" y="43.5" clip-path="url(#SVGID_6_)" fill="#444444" width="1" height="3"/>
		<rect x="477.5" y="43.5" clip-path="url(#SVGID_6_)" fill="#434343" width="0" height="3"/>
		<rect x="486.5" y="43.5" clip-path="url(#SVGID_6_)" fill="#393939" width="1" height="3"/>
		<rect x="487.5" y="43.5" clip-path="url(#SVGID_6_)" fill="#383838" width="1" height="3"/>
		<rect x="488.5" y="43.5" clip-path="url(#SVGID_6_)" fill="#373737" width="1" height="3"/>
		<rect x="489.5" y="43.5" clip-path="url(#SVGID_6_)" fill="#363636" width="0" height="3"/>
		<rect x="499.5" y="43.5" clip-path="url(#SVGID_6_)" fill="#2C2C2C" width="0" height="3"/>
		<rect x="499.5" y="43.5" clip-path="url(#SVGID_6_)" fill="#2B2B2B" width="0" height="3"/>
		<rect x="499.5" y="43.5" clip-path="url(#SVGID_6_)" fill="#2A2A2A" width="1" height="3"/>
		<rect x="500.5" y="43.5" clip-path="url(#SVGID_6_)" fill="#2A2A2A" width="1" height="3"/>
		<rect x="501.5" y="43.5" clip-path="url(#SVGID_6_)" fill="#292929" width="1" height="3"/>
		<rect x="511.5" y="43.5" clip-path="url(#SVGID_6_)" fill="#1F1F1F" width="0" height="3"/>
		<rect x="511.5" y="43.5" clip-path="url(#SVGID_6_)" fill="#1F1F1F" width="1" height="3"/>
		<rect x="512.5" y="43.5" clip-path="url(#SVGID_6_)" fill="#1E1E1E" width="1" height="3"/>
		<rect x="513.5" y="43.5" clip-path="url(#SVGID_6_)" fill="#1D1D1D" width="1" height="3"/>
		<rect x="514.5" y="43.5" clip-path="url(#SVGID_6_)" fill="#1C1C1C" width="0" height="3"/>
		<rect x="523.5" y="43.5" clip-path="url(#SVGID_6_)" fill="#141414" width="1" height="3"/>
		<rect x="524.5" y="43.5" clip-path="url(#SVGID_6_)" fill="#131313" width="0" height="3"/>
		<rect x="524.5" y="43.5" clip-path="url(#SVGID_6_)" fill="#121212" width="1" height="3"/>
		<rect x="525.5" y="43.5" clip-path="url(#SVGID_6_)" fill="#111111" width="1" height="3"/>
		<rect x="535.5" y="43.5" clip-path="url(#SVGID_6_)" fill="#090909" width="1" height="3"/>
		<rect x="536.5" y="43.5" clip-path="url(#SVGID_6_)" fill="#090909" width="1" height="3"/>
		<rect x="537.5" y="43.5" clip-path="url(#SVGID_6_)" fill="#080808" width="1" height="3"/>
		<rect x="538.5" y="43.5" clip-path="url(#SVGID_6_)" fill="#070707" width="0" height="3"/>
	</g>
</g>
<g>
	<g>
		<defs>
			<path id="SVGID_7_" d="M549.5,43.9c0.4,0,0.8,0.2,1.1,0.4c0.3,0.3,0.4,0.7,0.4,1.1c0,0.4-0.2,0.8-0.4,1.1
				c-0.3,0.3-0.7,0.4-1.1,0.4c-0.4,0-0.8-0.2-1.1-0.4c-0.3-0.3-0.4-0.7-0.4-1.1c0-0.4,0.2-0.8,0.4-1.1
				C548.7,44.1,549.1,43.9,549.5,43.9z M341.5,43.9c0.4,0,0.8,0.2,1.1,0.4c0.3,0.3,0.4,0.7,0.4,1.1c0,0.4-0.2,0.8-0.4,1.1
				c-0.3,0.3-0.7,0.4-1.1,0.4c-0.4,0-0.8-0.2-1.1-0.4c-0.3-0.3-0.4-0.7-0.4-1.1c0-0.4,0.2-0.8,0.4-1.1
				C340.7,44.1,341.1,43.9,341.5,43.9z"/>
		</defs>
		<clipPath id="SVGID_8_">
			<use xlink:href="#SVGID_7_"  overflow="visible"/>
		</clipPath>
		<rect x="339.5" y="43.5" clip-path="url(#SVGID_8_)" fill="#FFFFFF" width="1" height="3"/>
		<rect x="340.5" y="43.5" clip-path="url(#SVGID_8_)" fill="#FEFEFE" width="1" height="3"/>
		<rect x="341.5" y="43.5" clip-path="url(#SVGID_8_)" fill="#FCFCFC" width="0" height="3"/>
		<rect x="341.5" y="43.5" clip-path="url(#SVGID_8_)" fill="#FBFBFB" width="1" height="3"/>
		<rect x="342.5" y="43.5" clip-path="url(#SVGID_8_)" fill="#FAFAFA" width="0" height="3"/>
		<rect x="547.5" y="43.5" clip-path="url(#SVGID_8_)" fill="#010101" width="1" height="3"/>
		<rect x="548.5" y="43.5" clip-path="url(#SVGID_8_)" fill="#010101" width="1" height="3"/>
		<rect x="549.5" y="43.5" clip-path="url(#SVGID_8_)" fill="#010101" width="0" height="3"/>
		<rect x="549.5" y="43.5" clip-path="url(#SVGID_8_)" width="1" height="3"/>
		<rect x="550.5" y="43.5" clip-path="url(#SVGID_8_)" width="0" height="3"/>
	</g>
</g>
</svg>
