<?xml version="1.0" encoding="utf-8"?>
<!-- Generator: Adobe Illustrator 18.0.0, SVG Export Plug-In . SVG Version: 6.00 Build 0)  -->
<!DOCTYPE svg PUBLIC "-//W3C//DTD SVG 1.1//EN" "http://www.w3.org/Graphics/SVG/1.1/DTD/svg11.dtd">
<svg version="1.1" id="Layer_1" xmlns="http://www.w3.org/2000/svg" xmlns:xlink="http://www.w3.org/1999/xlink" x="0px" y="0px"
	 viewBox="0 0 80 80" enable-background="new 0 0 80 80" xml:space="preserve">
<g>
	<path fill="#FFFFFF" d="M47.2,40.7l3.2,6.8c5.5-3.5,9.2-9.6,9.2-16.6c0-10.9-8.8-19.7-19.7-19.7C28.9,11.1,20,19.9,20,30.8
		c0,7,3.7,13.1,9.2,16.6l3.2-6.8H47.2 M32.4,30.8c0-4.1,3.3-7.4,7.4-7.4c4.1,0,7.4,3.3,7.4,7.4c0,4.1-3.3,7.4-7.4,7.4
		C35.7,38.2,32.4,34.9,32.4,30.8"/>
	<g>
		<path fill="#FFFFFF" d="M10.3,55.3h5.3c1.1,0,1.8,0,2.4,0.1c0.5,0.1,1,0.3,1.4,0.6c0.4,0.3,0.8,0.7,1,1.1c0.3,0.5,0.4,1,0.4,1.6
			c0,0.6-0.2,1.2-0.5,1.7C20,61,19.6,61.3,19,61.6c0.8,0.2,1.4,0.6,1.9,1.2c0.4,0.6,0.7,1.2,0.7,2c0,0.6-0.1,1.2-0.4,1.8
			c-0.3,0.6-0.7,1-1.2,1.4c-0.5,0.3-1.1,0.6-1.8,0.6c-0.5,0-1.5,0.1-3.3,0.1h-4.6V55.3z M13,57.6v3.1h1.8c1.1,0,1.7,0,2,0
			c0.5-0.1,0.8-0.2,1.1-0.5c0.3-0.3,0.4-0.6,0.4-1c0-0.4-0.1-0.7-0.3-1c-0.2-0.3-0.6-0.4-1-0.5c-0.3,0-1,0-2.3,0H13z M13,62.9v3.6
			h2.5c1,0,1.6,0,1.9-0.1c0.4-0.1,0.7-0.3,1-0.5c0.3-0.3,0.4-0.7,0.4-1.1c0-0.4-0.1-0.7-0.3-1c-0.2-0.3-0.5-0.5-0.8-0.6
			c-0.4-0.1-1.2-0.2-2.4-0.2H13z"/>
		<path fill="#FFFFFF" d="M23.3,55.3h5.3c1.1,0,1.8,0,2.4,0.1c0.5,0.1,1,0.3,1.4,0.6c0.4,0.3,0.8,0.7,1,1.1c0.3,0.5,0.4,1,0.4,1.6
			c0,0.6-0.2,1.2-0.5,1.7C33,61,32.5,61.3,32,61.6c0.8,0.2,1.4,0.6,1.9,1.2c0.4,0.6,0.7,1.2,0.7,2c0,0.6-0.1,1.2-0.4,1.8
			s-0.7,1-1.2,1.4c-0.5,0.3-1.1,0.6-1.8,0.6c-0.5,0-1.5,0.1-3.3,0.1h-4.6V55.3z M26,57.6v3.1h1.8c1.1,0,1.7,0,2,0
			c0.5-0.1,0.8-0.2,1.1-0.5c0.3-0.3,0.4-0.6,0.4-1c0-0.4-0.1-0.7-0.3-1c-0.2-0.3-0.6-0.4-1-0.5c-0.3,0-1,0-2.3,0H26z M26,62.9v3.6
			h2.5c1,0,1.6,0,1.9-0.1c0.4-0.1,0.7-0.3,1-0.5c0.3-0.3,0.4-0.7,0.4-1.1c0-0.4-0.1-0.7-0.3-1c-0.2-0.3-0.5-0.5-0.8-0.6
			c-0.4-0.1-1.2-0.2-2.4-0.2H26z"/>
		<path fill="#FFFFFF" d="M44.8,63.8l2.6,0.8c-0.4,1.5-1.1,2.5-2,3.3c-0.9,0.7-2.1,1.1-3.6,1.1c-1.8,0-3.2-0.6-4.4-1.8
			c-1.1-1.2-1.7-2.9-1.7-5c0-2.2,0.6-4,1.7-5.2s2.7-1.8,4.5-1.8c1.6,0,3,0.5,4,1.5c0.6,0.6,1.1,1.4,1.4,2.5l-2.7,0.6
			c-0.2-0.7-0.5-1.2-1-1.6s-1.1-0.6-1.8-0.6c-1,0-1.8,0.4-2.4,1.1c-0.6,0.7-0.9,1.9-0.9,3.5c0,1.7,0.3,2.9,0.9,3.6
			c0.6,0.7,1.4,1.1,2.4,1.1c0.7,0,1.3-0.2,1.9-0.7C44.2,65.5,44.5,64.8,44.8,63.8z"/>
		<path fill="#FFFFFF" d="M53.7,68.7V55.3h2.7v13.4H53.7z"/>
		<path fill="#FFFFFF" d="M58.4,55.3h4.9c1.1,0,2,0.1,2.5,0.3c0.8,0.2,1.5,0.6,2,1.2c0.6,0.6,1,1.3,1.3,2.2c0.3,0.9,0.4,1.9,0.4,3.2
			c0,1.1-0.1,2.1-0.4,2.8c-0.3,1-0.8,1.8-1.4,2.4c-0.5,0.5-1.1,0.8-1.9,1.1c-0.6,0.2-1.4,0.3-2.4,0.3h-5.1V55.3z M61.1,57.6v8.9h2
			c0.8,0,1.3,0,1.6-0.1c0.4-0.1,0.8-0.3,1.1-0.6c0.3-0.3,0.5-0.7,0.7-1.3c0.2-0.6,0.3-1.4,0.3-2.5c0-1-0.1-1.8-0.3-2.4
			c-0.2-0.6-0.4-1-0.8-1.3c-0.3-0.3-0.7-0.5-1.3-0.6c-0.4-0.1-1.1-0.1-2.2-0.1H61.1z"/>
	</g>
</g>
</svg>
