<?xml version="1.0" encoding="utf-8"?>
<!-- Generator: Adobe Illustrator 18.0.0, SVG Export Plug-In . SVG Version: 6.00 Build 0)  -->
<!DOCTYPE svg PUBLIC "-//W3C//DTD SVG 1.1//EN" "http://www.w3.org/Graphics/SVG/1.1/DTD/svg11.dtd">
<svg version="1.1" id="Layer_1" xmlns="http://www.w3.org/2000/svg" xmlns:xlink="http://www.w3.org/1999/xlink" x="0px" y="0px"
	 viewBox="0 0 140 40" enable-background="new 0 0 140 40" xml:space="preserve">
<g>
	<path fill="#ADADAD" d="M38.1,24.8V14.6h7v1.7h-4.9v2.4h4.3v1.7h-4.3v4.3H38.1z"/>
	<path fill="#ADADAD" d="M46.9,19.8c0-1,0.2-1.9,0.5-2.6c0.2-0.5,0.5-1,0.9-1.4s0.8-0.7,1.3-0.9c0.6-0.3,1.4-0.4,2.2-0.4
		c1.5,0,2.7,0.5,3.6,1.4c0.9,0.9,1.4,2.2,1.4,3.9c0,1.6-0.4,2.9-1.3,3.9c-0.9,0.9-2.1,1.4-3.6,1.4c-1.5,0-2.7-0.5-3.6-1.4
		S46.9,21.4,46.9,19.8z M49.1,19.7c0,1.2,0.3,2,0.8,2.6c0.5,0.6,1.2,0.9,2,0.9c0.8,0,1.5-0.3,2-0.9s0.8-1.5,0.8-2.7
		c0-1.2-0.3-2-0.8-2.6s-1.2-0.9-2-0.9c-0.8,0-1.5,0.3-2.1,0.9S49.1,18.5,49.1,19.7z"/>
	<path fill="#ADADAD" d="M59,24.8V14.7h2.1v8.4h5.1v1.7H59z"/>
	<path fill="#ADADAD" d="M68.3,24.8V14.7h2.1v8.4h5.1v1.7H68.3z"/>
	<path fill="#ADADAD" d="M77.1,19.8c0-1,0.2-1.9,0.5-2.6c0.2-0.5,0.5-1,0.9-1.4s0.8-0.7,1.3-0.9c0.6-0.3,1.4-0.4,2.2-0.4
		c1.5,0,2.7,0.5,3.6,1.4c0.9,0.9,1.4,2.2,1.4,3.9c0,1.6-0.4,2.9-1.3,3.9c-0.9,0.9-2.1,1.4-3.6,1.4c-1.5,0-2.7-0.5-3.6-1.4
		S77.1,21.4,77.1,19.8z M79.2,19.7c0,1.2,0.3,2,0.8,2.6c0.5,0.6,1.2,0.9,2,0.9c0.8,0,1.5-0.3,2-0.9s0.8-1.5,0.8-2.7
		c0-1.2-0.3-2-0.8-2.6s-1.2-0.9-2-0.9c-0.8,0-1.5,0.3-2.1,0.9S79.2,18.5,79.2,19.7z"/>
	<path fill="#ADADAD" d="M90.6,24.8l-2.4-10.2h2.1l1.5,7l1.9-7h2.4l1.8,7.1l1.6-7.1h2.1l-2.5,10.2h-2.2l-2-7.6l-2,7.6H90.6z"/>
</g>
<g>
	<path fill="#323232" d="M122.4,34H17C3.8,34,3.7,20.8,3.7,20.7v-2.1C3.7,5.4,16.8,5.2,17,5.2h105.4c13.2,0,13.3,13.2,13.3,13.3v2.1
		C135.7,33.8,122.5,34,122.4,34z M17,6.2c0,0-3.2,0-6.2,1.6c-4,2-6.1,5.7-6.1,10.8v2.1c0,0,0,3.2,1.6,6.2c2,4,5.7,6.1,10.8,6.1
		h105.4c0,0,3.2,0,6.2-1.6c4-2,6.1-5.7,6.1-10.8v-2.1c0,0,0-3.2-1.6-6.2c-2-4-5.7-6.1-10.8-6.1H17z"/>
</g>
</svg>
