<?xml version="1.0" encoding="utf-8"?>
<!-- Generator: Adobe Illustrator 18.0.0, SVG Export Plug-In . SVG Version: 6.00 Build 0)  -->
<!DOCTYPE svg PUBLIC "-//W3C//DTD SVG 1.1//EN" "http://www.w3.org/Graphics/SVG/1.1/DTD/svg11.dtd">
<svg version="1.1" id="Layer_1" xmlns="http://www.w3.org/2000/svg" xmlns:xlink="http://www.w3.org/1999/xlink" x="0px" y="0px"
	 viewBox="0 0 40 40" enable-background="new 0 0 40 40" xml:space="preserve">
<g>
	<path fill="#6DA51E" d="M34.4,9.8C34.4,9.8,34.4,9.9,34.4,9.8c0.1,0.1,0.1,0.2,0.1,0.2s0,0.1,0,0.1s0,0.1,0,0.1s0,0.1,0,0.1
		s0,0.1,0,0.1s0,0.1,0,0.1s0,0.1-0.1,0.1L16.9,33.2c0,0-0.1,0.1-0.1,0.1c0,0-0.1,0.1-0.2,0.1c-0.1,0-0.1,0.1-0.2,0.1
		c-0.1,0-0.1,0.1-0.2,0.1s-0.1,0-0.2,0c-0.1,0-0.1-0.1-0.2-0.1c0,0-0.1-0.1-0.1-0.1c0,0-0.1-0.1-0.1-0.1c0,0-0.6-0.6-1.6-1.6
		c-1-1-2.2-2.1-3.4-3.3s-2.9-2.8-4.9-4.7l-0.2-0.2c0,0,0-0.1-0.1-0.1c0,0,0-0.1,0-0.1c0,0,0-0.1,0-0.1c0,0,0-0.1,0-0.1s0-0.1,0-0.1
		c0,0,0-0.1,0-0.1c0,0,0-0.1,0-0.1c0,0,0-0.1,0.1-0.1c0,0,0,0,0.1-0.1c0,0,0,0,0,0c0,0,0,0,0,0c0,0,0,0,0.1-0.1
		c0.2-0.3,0.5-0.6,0.9-0.9c0.3-0.4,0.7-0.7,1-1s0.6-0.6,0.8-0.9c0.2-0.2,0.4-0.4,0.4-0.4c0,0,0.1-0.1,0.1-0.1S8.9,19,9,19
		c0,0,0.1-0.1,0.2-0.1c0.1,0,0.1,0,0.2,0s0.1,0,0.2,0S9.7,19,9.7,19c0.1,0,0.1,0.1,0.2,0.1c0,0,0.1,0.1,0.1,0.1c0,0,0.4,0.4,1,0.9
		s1.2,1.2,2,1.9s1.6,1.6,2.8,2.7l14-18c0,0,0.1,0,0.1-0.1s0.1,0,0.1-0.1s0.1,0,0.1,0s0.1,0,0.1,0s0.1,0,0.1,0s0.1,0,0.1,0
		s0.1,0,0.1,0.1s0.1,0,0.1,0.1L34.4,9.8L34.4,9.8z"/>
</g>
</svg>
